"";"PH";"CO";"PD";"LEH";"periostosis"
"1";1;;2;1;1
"2";1;1;1;1;0
"3";0;1;;1;
"4";1;0;3;1;0
"5";0;2;3;2;1
"6";0;;1;0;0
"7";1;0;;;0
"8";;0;0;1;1
"9";0;;0;3;
"10";;0;0;;
"11";2;0;0;1;1
"12";0;;1;1;
"13";;;;1;
"14";1;0;1;3;1
"15";1;1;3;1;
"16";0;;3;1;0
"17";0;0;3;1;
"18";0;0;3;1;1
"19";1;0;;;0
"20";0;0;;1;0
"21";1;;4;;
"22";0;;4;1;1
"23";1;0;0;;1
"24";0;1;0;;0
"25";;1;4;1;
"26";1;0;3;1;2
"27";1;;4;1;0
"28";1;1;3;3;1
"29";0;0;0;1;1
"30";0;0;3;1;0
"31";;0;3;1;
"32";0;1;0;0;1
"33";0;1;;;0
"34";0;0;0;1;1
"35";0;1;1;;0
"36";0;0;4;0;
"37";0;0;0;1;0
"38";0;0;0;2;1
"39";1;;0;1;
"40";1;;0;;0
"41";0;0;1;0;
"42";0;0;1;2;0
"43";1;1;1;1;0
"44";;;2;1;2
"45";0;0;2;1;1
"46";0;;;2;
"47";1;;;1;0
"48";1;0;4;2;0
"49";1;0;0;1;1
"50";1;1;0;1;0
"51";1;1;2;2;1
"52";;0;3;1;1
"53";1;;3;2;
"54";2;0;;0;0
"55";2;0;0;0;0
"56";2;0;;1;1
"57";;2;;0;0
"58";0;0;;0;0
"59";;0;0;2;2
"60";0;0;0;;0
"61";1;0;0;1;1
"62";0;0;2;0;0
"63";;0;4;1;0
"64";1;1;0;1;
"65";1;0;1;1;2
"66";0;0;0;0;1
"67";0;3;;3;
"68";;0;2;1;0
"69";0;1;2;3;0
"70";1;0;;1;
"71";0;;3;;0
"72";0;0;1;;
"73";0;0;1;0;1
"74";0;2;4;0;0
"75";0;0;4;0;0
"76";;1;0;1;0
"77";0;2;1;1;0
"78";;;0;0;0
"79";1;0;0;0;0
"80";;;;0;0
"81";;0;;0;
"82";;;1;;0
"83";;0;1;0;0
"84";2;0;1;0;
"85";1;0;1;;1
"86";;;;0;
"87";1;;2;0;0
"88";1;0;3;;0
"89";1;1;;1;1
"90";1;;3;1;0
"91";;0;4;;2
"92";1;0;4;0;0
"93";1;;4;1;
"94";0;;0;1;
"95";0;1;4;2;1
"96";1;0;1;2;1
"97";;0;0;;0
"98";1;0;4;3;
"99";;0;0;1;0
"100";0;0;1;1;
"101";;;1;;0
"102";0;0;4;0;0
"103";;0;0;;
"104";0;;4;0;0
"105";;2;;0;0
"106";;0;4;0;1
"107";1;0;4;1;1
"108";;0;4;0;1
"109";1;2;;2;0
"110";1;0;0;;0
"111";0;1;1;;
"112";1;;;1;0
"113";1;1;3;;0
"114";1;0;4;2;1
"115";0;0;2;;1
"116";1;0;0;2;1
"117";1;0;4;1;1
"118";1;0;1;;
"119";0;0;3;1;2
"120";;2;0;;2
"121";1;0;2;1;3
"122";1;;;0;0
"123";0;0;3;1;0
"124";1;;3;0;0
"125";0;0;0;1;
"126";0;3;1;0;0
"127";0;0;;;
"128";0;0;2;0;1
"129";;;3;;1
"130";0;0;;;2
"131";0;;1;1;0
"132";0;0;2;;0
"133";0;0;;;1
"134";1;0;;1;
"135";0;1;4;;0
"136";0;0;0;1;3
"137";0;0;4;1;0
"138";1;;0;0;1
"139";;0;0;2;0
"140";;;0;0;0
"141";0;2;0;2;0
"142";0;0;0;2;0
"143";0;0;0;2;0
"144";;1;1;2;0
"145";0;0;0;0;0
"146";0;0;0;1;0
"147";0;;0;1;0
"148";;1;0;3;1
"149";0;0;1;3;0
"150";1;0;1;1;0
"151";0;0;1;;1
"152";;;;0;0
"153";1;0;;0;1
"154";1;2;2;0;0
"155";1;0;;0;
"156";2;;3;;
"157";2;0;;2;0
"158";2;0;3;;1
"159";2;0;;0;0
"160";;0;3;2;
"161";1;2;3;1;1
"162";1;0;;0;0
"163";;0;4;1;
"164";;0;4;0;0
"165";;0;2;2;
"166";1;0;0;2;
"167";;3;3;1;1
"168";1;0;3;2;0
"169";1;0;;;0
"170";1;0;;1;0
"171";0;;0;;1
"172";2;0;;1;1
"173";2;0;4;3;1
"174";2;0;0;2;
"175";2;1;0;1;1
"176";1;1;0;1;0
"177";1;2;;;0
"178";1;;0;1;0
"179";2;0;0;;1
"180";1;;0;;0
"181";1;0;0;1;0
"182";0;;;0;0
"183";1;0;;1;1
"184";1;1;0;;2
"185";;;1;1;0
"186";0;1;1;1;
"187";0;0;1;0;
"188";1;0;1;1;0
"189";0;1;1;1;
"190";;1;;0;2
"191";0;2;1;1;
"192";;0;1;;0
"193";;;1;1;
"194";0;;1;1;1
"195";0;0;3;;0
"196";0;0;3;0;
"197";1;0;;;2
"198";0;0;3;1;
"199";0;0;;2;1
"200";0;0;;;
"201";;0;;2;1
"202";0;0;3;0;
"203";;0;1;;0
"204";1;2;;1;0
"205";1;;2;1;
"206";;0;3;0;0
"207";2;2;1;1;1
"208";1;0;3;1;1
"209";;;3;0;
"210";1;0;3;2;0
"211";1;;3;2;0
"212";0;0;4;;0
"213";0;;3;0;2
"214";0;;3;;0
"215";1;0;3;0;0
"216";1;0;3;1;2
"217";0;0;;1;0
"218";1;;3;2;0
"219";1;3;4;1;1
"220";0;0;;3;0
"221";0;0;4;1;1
"222";0;0;1;;1
"223";2;0;1;1;0
"224";0;0;3;0;0
"225";1;0;4;2;0
"226";1;0;;1;
"227";1;0;0;2;0
"228";1;;0;0;1
"229";1;0;1;1;0
"230";1;;0;;0
"231";1;0;0;0;0
"232";;0;0;1;1
"233";1;0;0;1;1
"234";1;0;4;2;0
"235";1;1;0;2;
"236";0;1;;2;1
"237";1;1;2;;3
"238";0;1;0;1;0
"239";1;1;2;1;
"240";0;0;1;0;
"241";1;0;;2;0
"242";;;;0;1
"243";0;0;4;;
"244";1;0;3;1;
"245";1;;2;1;0
"246";2;1;;1;0
"247";0;1;0;1;0
"248";;0;0;1;0
"249";1;0;;;2
"250";1;0;;1;2
"251";0;0;3;2;1
"252";;0;2;1;
"253";1;1;4;0;1
"254";0;0;3;2;0
"255";;0;3;1;
"256";0;0;3;0;0
"257";;0;1;;1
"258";2;1;4;1;0
"259";;;0;1;
"260";;0;4;1;1
"261";1;;;1;1
"262";1;;;1;1
"263";;0;0;;1
"264";0;0;0;;0
"265";2;;0;0;1
"266";1;0;0;0;1
"267";1;0;3;;0
"268";;;3;;0
"269";1;0;3;1;1
"270";0;1;1;;0
"271";0;0;0;1;1
"272";2;;3;1;0
"273";0;0;3;;
"274";;;3;1;0
"275";0;0;0;2;0
"276";1;2;1;1;0
"277";1;0;0;1;1
"278";1;1;2;2;2
"279";0;0;3;;1
