"";"HSC_R";"HSI_R";"HEL_R";"HEM_R";"RBB_R";"CSB_R";"FPF_R";"FMF_R";"FIP_R"
"2";1;1;1;1;;;1;1;1
"3";1;;1;1;1;1;1;1;
"22";1;1;1;1;1;1;;1;1
"24";1;;1;1;1;;1;1;1
"25";1;;1;1;1;1;1;1;
"31";1;1;1;1;1;;;1;1
"32";1;1;1;1;1;;1;;1
"33";;;1;1;2;2;;1;1
"37";1;1;1;1;;1;1;1;1
"39";;1;1;;1;1;1;1;1
"40";1;1;;1;1;1;1;1;1
"41";1;1;1;2;;1;1;;2
"43";;;1;;1;1;1;;1
"45";1;1;;1;;1;;1;1
"46";1;1;1;1;1;;1;1;1
"48";1;1;1;1;1;1;1;1;1
"58";1;1;1;1;;1;1;1;
"61";1;1;1;1;1;1;1;;1
"73";1;;1;;1;1;1;1;1
"75";1;1;1;1;;1;1;;1
"76";1;1;1;1;2;1;1;1;2
"81";1;1;1;1;1;1;1;1;1
"82";1;2;1;1;1;1;1;1;1
"91";1;1;1;1;1;1;1;1;1
"92";;;1;1;1;1;1;;1
"94";2;1;1;1;1;1;1;1;
"96";1;1;1;2;1;;1;1;
"97";1;1;;1;1;;1;1;1
"101";1;1;1;;;1;;1;1
"102";1;;;1;1;;1;1;1
"115";;1;;1;;1;1;1;1
"116";1;1;1;1;1;;1;;1
"121";1;;1;1;1;1;;1;1
"124";1;1;;;1;;;1;
"126";1;1;1;;1;1;1;1;1
"127";1;;1;1;1;1;1;1;1
"129";1;;;1;1;;1;1;1
"130";1;1;1;1;1;1;;1;2
"133";1;1;1;;;;1;1;1
"134";2;;1;1;1;1;1;1;1
"137";1;1;;1;1;;1;1;1
"140";1;1;1;;1;1;1;1;
"143";2;1;;;1;;;;1
"154";;1;1;1;1;1;1;;1
"155";1;;1;1;1;1;1;1;1
"156";1;;1;1;1;;1;1;1
"157";1;1;1;1;;1;1;;1
"161";1;1;1;1;1;1;;1;1
"162";1;1;1;1;1;1;;;1
"164";1;1;1;1;1;;1;1;1
"173";1;;;1;1;1;1;1;
"175";;1;2;1;1;1;1;1;1
"177";2;1;1;1;1;1;1;1;1
"180";1;1;1;;;1;1;1;1
"181";1;1;;;2;1;1;;1
"185";1;1;1;1;1;1;1;1;1
"186";;1;1;1;1;1;1;1;1
"188";1;1;1;1;1;1;1;1;1
"190";;1;1;1;1;1;1;1;1
"191";1;1;1;1;;1;1;1;
"192";2;2;;1;1;2;1;1;1
"195";1;1;1;1;1;1;1;1;1
"197";;;1;1;1;1;1;1;1
"205";1;;1;1;1;1;1;1;1
"210";1;1;1;1;2;1;1;1;2
"212";1;1;1;1;;1;1;1;1
"213";2;1;;2;2;;;1;1
"214";;;;1;1;1;1;1;1
"216";1;1;2;1;1;1;1;1;2
"224";1;;1;1;1;1;1;1;1
"229";2;;1;1;2;1;1;1;1
"232";1;1;1;1;2;1;1;1;1
"239";1;1;1;1;1;1;;1;1
"240";1;1;1;1;;1;1;1;
"241";1;1;1;1;1;1;1;1;1
"242";;1;1;1;1;;;;
"244";2;;1;1;1;1;;1;1
"249";;1;1;1;1;1;1;1;1
"250";1;1;1;;1;1;;1;1
"252";;1;1;1;;;1;1;1
"264";;1;;1;;;1;1;1
"267";;1;1;;1;1;;;1
"269";;1;1;1;1;1;1;1;1
"270";1;1;1;1;;;1;1;
"277";1;2;1;1;;;1;1;1
"278";;1;1;1;1;1;1;;2
"287";2;2;1;2;;1;1;1;
"289";1;1;1;1;1;1;1;;1
"290";2;2;1;1;1;1;1;;1
"291";2;1;1;1;;1;1;1;2
"298";;1;1;;1;2;1;;1
"305";2;2;1;1;1;1;1;2;1
"307";2;2;1;;1;;1;1;
"308";1;1;;1;2;1;1;1;1
"310";2;;;;1;1;;1;1
"313";1;1;1;;;;1;1;1
"316";;1;1;1;1;2;1;1;1
"318";1;1;1;1;1;1;1;1;1
"319";;1;1;1;;2;1;;1
"324";1;1;1;1;1;;1;1;1
"327";;1;1;1;2;1;1;;1
"329";2;;;1;1;1;1;1;2
"332";;1;1;1;1;1;;1;2
"333";1;;;1;1;1;1;;2
"335";;3;;;;1;1;;1
"340";;;;1;;2;1;1;1
"341";1;1;1;;1;1;1;1;1
"343";;1;1;1;;1;1;1;1
"345";1;1;1;1;;1;1;1;2
"346";2;;2;1;1;1;1;1;1
"349";2;;1;1;;1;1;1;1
"350";1;2;1;;1;2;;2;1
"353";2;2;3;2;;2;1;2;2
"355";1;;1;1;1;;;1;1
"359";2;2;;1;3;2;;1;
"361";1;1;1;1;1;1;1;1;2
"362";2;;1;1;;1;1;1;1
"365";1;;;1;2;2;1;1;1
"367";1;1;2;1;1;2;1;;2
"370";;1;1;1;2;1;1;;
"375";1;1;1;1;;1;1;1;1
"376";1;1;2;2;1;1;1;1;
"379";1;1;2;1;1;1;;;1
"380";1;1;2;1;1;2;1;1;1
"384";2;;1;1;2;1;1;2;1
"391";1;1;1;1;1;1;;1;1
"392";1;1;1;1;;;1;1;
"396";2;;;1;1;;1;;
"397";;2;;1;1;1;1;1;1
"401";2;2;1;1;2;1;1;1;1
"402";2;1;1;1;1;1;2;1;1
"404";2;1;1;;;1;1;1;1
"405";1;1;1;1;1;1;;1;2
"406";1;1;;1;1;1;1;1;1
"408";2;2;3;1;;1;2;2;
"411";1;;1;1;1;;;2;2
"418";1;1;;1;;1;1;;
"421";1;1;1;1;1;1;;;
"426";;1;1;2;1;1;2;1;2
"432";;2;2;2;1;2;;2;2
"436";1;1;2;1;1;1;1;1;2
"439";1;1;1;1;;2;1;1;2
"440";1;2;2;;2;1;1;;1
"442";;1;1;;1;;3;1;1
"444";1;1;1;1;1;;1;1;2
"445";2;;1;1;1;2;;1;1
"450";1;1;1;1;1;1;;1;
"452";;;1;1;1;;1;1;2
"453";1;1;2;1;;2;1;2;1
"455";1;1;1;1;1;;;;1
"456";1;1;2;1;1;1;1;1;1
"457";;2;1;1;3;2;1;1;3
"458";2;;;1;2;;1;1;2
"467";1;1;3;;2;;1;;3
"468";1;;2;1;1;1;;1;
"470";2;1;1;1;1;;1;;1
"473";1;1;;;1;1;1;1;1
"474";2;2;2;2;2;3;1;;1
"478";2;1;2;1;1;2;1;1;1
"479";;1;;;;;1;1;1
"483";1;1;1;1;1;;1;1;1
"487";2;;1;2;1;3;2;2;2
"489";;2;2;;;;1;1;2
"491";;;2;1;2;1;1;1;2
"495";;3;1;1;2;2;;2;1
"497";2;1;1;1;;1;1;1;1
"498";;1;2;1;1;1;1;1;1
"503";3;3;3;2;;2;3;3;3
"513";2;1;1;;2;1;1;2;2
"514";2;1;;1;1;1;1;1;1
"517";1;;2;1;2;2;2;2;2
"518";2;1;1;1;1;;1;1;1
"524";1;1;2;;2;2;1;1;2
"525";1;2;2;2;2;2;2;;
"528";2;1;;;1;;1;;3
"529";2;;1;1;2;2;1;1;2
"533";2;2;2;2;;;1;1;
"535";1;2;;2;1;3;;1;
"537";2;1;1;2;2;;;2;1
"541";2;;2;1;;;1;;2
"542";1;1;;1;1;;1;1;1
"543";2;1;;;;1;1;1;2
"546";2;2;3;;2;3;1;2;2
"550";1;2;2;2;1;;1;2;
"551";;1;3;;1;2;1;2;1
"553";1;1;2;2;1;3;1;;2
"556";2;1;1;;1;;;2;
"559";2;1;2;1;1;1;1;1;1
"561";1;1;1;1;;1;1;1;1
"562";;1;1;;;1;1;1;
"563";2;1;2;1;2;2;1;2;3
"564";;1;2;;1;3;;2;1
"569";;1;1;1;1;;1;1;1
"570";2;2;2;1;;1;3;2;
"575";2;;3;2;1;1;1;;
"577";1;1;1;1;;1;1;1;1
"579";2;2;2;1;2;;1;1;2
"583";1;1;2;1;1;2;;1;3
"584";2;1;2;;;;1;1;2
"585";2;2;;2;1;3;;1;
"587";;1;;;2;2;;;2
"590";1;;1;;2;1;1;2;1
"591";;2;;1;1;1;1;;2
"592";1;;3;;1;2;;2;1
"593";3;3;;;1;;1;1;1
"594";;;1;1;1;1;1;;1
"596";2;1;;;;1;1;;2
"597";3;2;3;1;2;2;2;2;2
"601";;;2;1;1;2;1;1;
"603";2;2;;2;2;1;2;;3
"605";2;3;3;3;2;2;3;2;2
"608";2;2;2;1;2;;;1;2
"609";1;1;1;1;1;1;;;
"612";2;2;2;2;;2;;2;2
"614";2;2;1;1;3;1;;;2
"616";1;1;1;1;2;3;2;2;
"620";2;;;2;2;3;3;3;2
"623";2;;;1;2;1;1;1;1
"628";2;2;2;1;2;3;;2;2
"629";1;1;;1;1;2;1;2;2
"630";1;2;2;2;;;1;2;1
"631";2;1;2;1;2;1;1;2;3
"632";1;1;2;;;3;1;1;1
"633";2;2;1;1;1;;1;2;1
"635";1;2;;1;1;1;1;1;1
"638";2;2;2;2;1;;;2;2
"639";2;2;1;1;3;2;2;1;2
"643";1;1;1;;1;1;1;1;1
"645";1;;2;1;3;1;1;1;
"646";1;1;;;;1;1;1;2
"652";2;1;;1;2;2;;2;2
"655";;2;1;1;2;2;1;1;1
"658";3;;2;1;1;1;3;2;
"661";2;1;3;2;1;2;1;1;2
"663";3;;2;2;3;3;1;2;3
"666";1;1;3;1;1;2;2;2;2
"668";1;;3;1;2;;1;;1
"673";2;;;2;2;;;3;1
"675";2;2;2;1;1;3;1;2;2
"676";2;1;2;1;2;1;1;1;1
"685";2;1;3;;2;2;;2;2
"688";;;3;3;3;2;2;1;
"689";2;1;2;;2;3;;3;2
"694";3;2;3;2;1;3;1;3;1
"696";2;1;;1;2;2;1;1;1
"697";2;2;3;2;3;2;2;3;
"701";2;1;;3;2;;;2;3
"706";;2;;2;2;1;1;2;2
"712";2;2;;;1;2;2;2;2
"713";2;2;2;2;2;2;;2;
"714";3;3;2;;;;;2;2
"716";;;;;;3;;2;2
"718";2;1;3;1;2;;1;1;1
"720";3;;2;3;2;3;3;3;3
"721";;2;2;3;2;;3;2;3
