"";"PH";"CO";"PD";"LEH";"periostosis"
"1";1;0;2;;1
"2";1;;;1;0
"3";;1;1;;
"4";1;;;1;
"5";;;;2;
"6";0;0;1;;0
"7";;;;1;0
"8";;0;0;1;
"9";0;;0;;0
"10";;0;0;2;0
"11";2;;0;;1
"12";0;;1;1;0
"13";0;1;1;;1
"14";;0;;3;1
"15";1;1;;;0
"16";0;0;3;1;
"17";0;;;1;
"18";0;;3;;
"19";1;0;;1;0
"20";;0;;;0
"21";1;;;1;0
"22";0;0;4;;1
"23";1;0;0;1;1
"24";0;1;0;1;0
"25";1;;4;1;1
"26";1;0;3;1;2
"27";;;4;1;0
"28";1;1;;;1
"29";0;;;1;1
"30";0;0;3;;0
"31";;0;;;1
"32";0;;;0;
"33";0;1;3;1;0
"34";0;0;0;;1
"35";0;;1;;
"36";0;0;;;1
"37";;0;;;0
"38";0;0;;;
"39";1;0;;;0
"40";1;;0;;0
"41";0;;;;1
"42";0;;1;;0
"43";1;1;1;;
"44";0;;;1;2
"45";;;;1;
"46";;;;;
"47";1;0;3;1;
"48";;;;;
"49";;0;0;1;
"50";1;1;0;1;0
"51";1;;2;2;1
"52";1;;;;1
"53";;0;;2;2
"54";2;0;3;0;0
"55";;0;0;;0
"56";2;;;1;
"57";;2;0;;0
"58";0;;;0;
"59";0;0;0;;
"60";;0;;1;
"61";1;0;;;
"62";0;0;2;0;
"63";;0;;1;
"64";;;0;;0
"65";;;1;;2
"66";0;;;;1
"67";0;3;2;;
"68";;0;;;0
"69";0;1;;;
"70";;;4;;2
"71";;;;1;
"72";;0;;0;0
"73";0;0;1;0;
"74";;2;;0;
"75";0;;;;
"76";2;1;0;;0
"77";;;;1;
"78";0;1;0;0;0
"79";1;0;0;;0
"80";0;;0;0;
"81";;;;;1
"82";;1;;;
"83";1;;1;0;0
"84";;0;1;;
"85";1;0;;0;
"86";1;0;;0;0
"87";1;0;;;0
"88";;0;3;1;0
"89";;1;3;1;
"90";1;0;3;1;
"91";0;0;4;1;2
"92";;0;4;0;
"93";1;0;;;0
"94";;;0;;0
"95";0;1;4;2;1
"96";1;0;1;;1
"97";0;0;;3;0
"98";;0;4;3;
"99";0;;0;;
"100";0;0;;;
"101";0;;1;1;0
"102";;;4;;
"103";0;0;;0;
"104";0;0;;0;0
"105";;;3;;0
"106";0;0;4;0;1
"107";;;;1;1
"108";1;;4;;
"109";1;2;1;2;0
"110";;;0;3;0
"111";;;;1;3
"112";1;;0;1;
"113";1;;3;1;0
"114";;0;4;2;1
"115";0;;;0;1
"116";1;0;;2;
"117";;;;1;1
"118";1;0;;1;1
"119";;;3;1;
"120";;2;0;;2
"121";1;0;;1;3
"122";1;;1;0;0
"123";;0;;;0
"124";1;0;3;0;0
"125";0;0;0;1;0
"126";;3;1;;
"127";;0;;1;0
"128";0;;2;;
"129";;;3;1;
"130";;;;;2
"131";0;;1;1;0
"132";0;;2;0;0
"133";;;3;;1
"134";1;0;3;1;0
"135";0;;;0;0
"136";0;;0;1;3
"137";0;0;;1;
"138";1;0;0;;1
"139";;0;;;0
"140";;0;;0;0
"141";0;;;2;0
"142";;0;0;;
"143";;0;;;0
"144";;1;;2;
"145";0;;;0;0
"146";0;;;1;0
"147";0;;0;;0
"148";;;0;;1
"149";0;0;1;3;0
"150";1;0;;1;0
"151";;0;1;2;
"152";;0;1;0;
"153";;0;;;
"154";1;2;;;
"155";;;2;;
"156";2;;3;;0
"157";2;0;3;;
"158";2;0;3;2;
"159";2;0;3;;0
"160";1;0;3;;0
"161";1;2;3;1;
"162";1;;;0;0
"163";1;;4;1;3
"164";2;0;;;
"165";;0;2;;
"166";1;0;;2;
"167";2;3;3;;1
"168";1;;;;0
"169";1;;1;;0
"170";1;0;0;;
"171";0;0;0;0;
"172";;;;1;1
"173";;;4;;
"174";2;;;;
"175";2;;0;1;
"176";;1;0;1;0
"177";;2;;1;
"178";1;3;0;1;0
"179";;0;;2;1
"180";1;0;0;0;
"181";1;;0;1;0
"182";0;0;0;0;
"183";1;0;0;;1
"184";1;1;0;0;2
"185";0;;1;;0
"186";0;1;1;;1
"187";0;0;1;0;
"188";;;;1;0
"189";0;;1;1;0
"190";1;1;;0;2
"191";0;2;1;;
"192";0;0;;0;0
"193";;0;;1;
"194";0;2;;1;1
"195";0;;;1;
"196";0;;;0;
"197";;0;3;0;
"198";0;;;;0
"199";0;0;;2;1
"200";0;0;;;0
"201";;0;3;;1
"202";;;3;;0
"203";;0;1;;0
"204";;2;;;0
"205";1;1;;1;0
"206";;;;0;0
"207";2;;1;;
"208";1;;;1;
"209";;;;0;0
"210";;0;3;;0
"211";;;;2;0
"212";;;;;
"213";0;0;;0;
"214";0;0;;1;0
"215";;;3;0;0
"216";1;;;1;
"217";0;0;;;
"218";1;;;;0
"219";1;3;;1;1
"220";0;;4;;0
"221";0;;4;;
"222";;0;;;1
"223";2;0;;;
"224";0;;;;0
"225";;;4;;0
"226";;;0;1;0
"227";1;;0;2;0
"228";;0;;0;1
"229";;;;;0
"230";1;1;;2;0
"231";1;0;0;0;0
"232";;0;;1;1
"233";1;0;0;1;
"234";1;0;4;;0
"235";1;1;0;2;0
"236";;;0;2;
"237";1;1;2;;3
"238";0;;0;1;0
"239";1;1;2;1;1
"240";0;0;;;0
"241";;0;;;0
"242";0;;4;;1
"243";0;;4;;0
"244";1;0;;;
"245";1;;2;;
"246";2;1;;1;
"247";;1;0;1;0
"248";1;0;0;1;
"249";;0;3;1;
"250";;;;1;
"251";0;0;3;2;1
"252";1;0;;1;
"253";1;1;4;0;
"254";;0;3;2;0
"255";0;;3;1;1
"256";0;0;;0;
"257";0;0;;;
"258";;1;4;1;0
"259";0;;0;1;
"260";;0;4;1;1
"261";1;;1;;
"262";1;1;;;
"263";;0;0;;
"264";0;0;;;0
"265";;;0;;1
"266";1;;0;;1
"267";1;;3;1;
"268";1;;3;2;
"269";;0;;;
"270";;;1;0;
"271";0;0;0;;1
"272";;;3;;0
"273";0;;3;2;1
"274";0;0;3;;0
"275";0;;;2;
"276";1;2;1;;0
"277";1;0;;;
"278";;1;2;;2
"279";;0;;2;
