"";"PH";"CO";"PD";"LEH";"periostosis"
"1";1;0;;;1
"2";1;1;1;1;
"3";0;1;1;;0
"4";1;0;3;1;
"5";0;;;2;1
"6";0;0;1;0;0
"7";;0;0;1;0
"8";0;0;0;1;1
"9";;;0;;0
"10";0;;0;;0
"11";2;;0;1;1
"12";0;0;1;1;
"13";0;1;1;1;
"14";;0;1;;1
"15";1;1;3;1;0
"16";;0;;1;0
"17";0;;;1;0
"18";;0;3;1;1
"19";1;0;4;;
"20";0;0;4;1;
"21";1;0;4;1;0
"22";0;0;;;1
"23";1;;0;1;
"24";0;1;0;1;
"25";1;1;4;1;1
"26";1;0;3;;
"27";1;;;;0
"28";1;1;3;3;1
"29";;0;;;1
"30";0;0;;;0
"31";0;0;3;1;1
"32";0;1;0;0;
"33";0;;3;;
"34";0;0;;1;1
"35";0;1;1;;
"36";0;0;;0;1
"37";0;0;;1;
"38";0;0;;;1
"39";1;;;1;
"40";1;1;0;1;0
"41";0;0;1;0;1
"42";0;;1;2;0
"43";;1;1;;0
"44";0;1;2;1;2
"45";0;0;2;1;1
"46";0;;;2;0
"47";;;;1;0
"48";1;;4;2;
"49";;0;0;1;1
"50";1;1;0;;
"51";1;1;;2;
"52";1;0;3;1;1
"53";1;0;3;;
"54";2;0;3;;0
"55";2;0;;0;0
"56";;0;;1;1
"57";2;2;0;0;
"58";0;0;0;;0
"59";0;0;0;;2
"60";;0;;1;0
"61";1;0;0;1;1
"62";0;0;2;;
"63";;0;4;;
"64";1;1;;;0
"65";;0;1;1;2
"66";0;0;0;0;1
"67";0;3;;3;
"68";1;0;;1;0
"69";0;1;;3;0
"70";;0;;1;2
"71";;;3;1;0
"72";0;0;1;0;0
"73";0;0;1;;1
"74";0;2;4;0;0
"75";;0;;;0
"76";2;;0;;0
"77";;2;1;;
"78";;1;;0;0
"79";1;0;0;;0
"80";0;0;0;0;0
"81";0;0;;;1
"82";0;;1;;0
"83";;0;;0;0
"84";;0;;0;
"85";1;;1;0;
"86";1;0;1;0;0
"87";1;0;2;0;0
"88";1;;3;1;
"89";;;;1;1
"90";1;;;1;0
"91";0;0;4;1;
"92";1;;4;0;0
"93";1;0;4;1;
"94";0;0;0;1;0
"95";0;1;4;;1
"96";;0;;;1
"97";0;0;0;;0
"98";1;0;4;;0
"99";0;0;0;1;0
"100";0;0;1;;
"101";0;0;1;1;0
"102";;0;;0;0
"103";0;0;;0;0
"104";0;;4;0;0
"105";0;2;3;;
"106";0;;;0;
"107";1;0;4;1;
"108";;0;4;;
"109";;;1;2;0
"110";1;0;0;3;0
"111";0;1;1;1;3
"112";1;0;;1;0
"113";;;;1;0
"114";;0;4;2;1
"115";0;0;;0;1
"116";1;;0;2;
"117";1;0;4;1;1
"118";1;0;1;1;
"119";0;0;;1;2
"120";;2;;1;
"121";;0;;1;
"122";1;0;1;;
"123";0;0;;;0
"124";1;0;;0;0
"125";0;;0;1;0
"126";0;;;;
"127";0;;1;;
"128";0;0;2;0;
"129";;;;1;1
"130";0;;4;1;2
"131";;0;1;1;
"132";0;0;2;0;0
"133";0;0;3;0;
"134";1;0;3;;0
"135";0;;;;0
"136";0;0;;;3
"137";0;0;4;1;0
"138";1;0;;0;
"139";;0;0;2;
"140";0;0;0;0;0
"141";;;0;2;
"142";;;0;2;0
"143";0;0;0;2;0
"144";1;1;;2;0
"145";;;0;;0
"146";0;;;1;0
"147";0;0;0;1;0
"148";1;1;;3;1
"149";0;0;1;3;
"150";1;0;;1;0
"151";0;0;1;2;1
"152";0;;1;0;0
"153";1;;1;0;1
"154";1;2;2;0;0
"155";;;2;;1
"156";2;0;3;;0
"157";2;0;3;2;0
"158";;;3;2;1
"159";2;;;0;0
"160";1;0;;2;0
"161";;2;3;1;1
"162";;;4;;0
"163";1;0;4;1;3
"164";2;0;;;
"165";0;0;2;2;1
"166";1;;;;
"167";2;3;3;1;
"168";;;;2;
"169";;0;1;1;0
"170";;;0;;
"171";0;0;0;0;1
"172";;0;0;1;1
"173";2;0;4;;1
"174";;;0;2;3
"175";;;;1;1
"176";;1;0;;0
"177";1;2;0;1;0
"178";1;3;;1;
"179";2;0;0;2;
"180";1;;0;;
"181";;0;;1;0
"182";;0;;0;0
"183";1;0;;1;1
"184";;1;;0;2
"185";0;0;1;;0
"186";;1;1;1;1
"187";;;1;0;
"188";1;0;1;1;
"189";0;;1;1;0
"190";1;1;1;0;2
"191";0;2;1;1;0
"192";;0;1;0;0
"193";0;0;;1;1
"194";0;;1;1;
"195";0;;;1;
"196";0;0;3;0;1
"197";1;0;3;;
"198";0;0;;1;
"199";0;;4;2;1
"200";;;3;1;
"201";0;;;2;1
"202";0;0;;;
"203";1;0;;0;0
"204";;2;1;1;0
"205";;1;2;1;0
"206";;;;;0
"207";2;;;1;1
"208";1;0;;;1
"209";0;;3;0;0
"210";;;3;2;
"211";1;;3;2;0
"212";;0;4;;0
"213";0;0;3;0;2
"214";0;0;;;
"215";1;0;;0;0
"216";;0;3;1;2
"217";0;0;3;1;0
"218";1;0;3;;
"219";1;3;;;1
"220";0;0;4;;
"221";0;0;4;1;1
"222";;0;1;2;1
"223";2;0;;1;
"224";0;;3;;0
"225";1;0;4;2;0
"226";1;0;;1;
"227";1;;0;2;0
"228";1;;0;0;1
"229";;0;1;1;0
"230";1;1;0;2;
"231";1;0;;0;0
"232";1;0;0;;
"233";1;0;0;1;
"234";1;0;;2;0
"235";1;;;;0
"236";0;1;0;;1
"237";;;2;0;3
"238";;1;0;;
"239";;1;;;1
"240";0;0;1;;0
"241";1;;3;2;0
"242";0;0;4;0;1
"243";0;0;4;;
"244";;0;3;1;
"245";;1;2;1;0
"246";2;1;3;1;
"247";0;1;;;0
"248";;0;0;1;0
"249";1;0;;;
"250";1;;3;1;2
"251";;0;3;;1
"252";1;0;2;1;0
"253";1;;4;0;1
"254";;;3;;
"255";0;0;;;1
"256";;0;;;0
"257";0;0;;2;1
"258";2;;;;0
"259";0;0;0;;0
"260";;0;4;1;1
"261";1;;1;1;1
"262";1;1;4;1;1
"263";1;0;0;;1
"264";;0;0;;0
"265";2;1;0;0;1
"266";1;0;0;;1
"267";;0;3;1;0
"268";;0;;;
"269";;0;3;1;1
"270";0;1;1;;
"271";;;;1;
"272";;0;;;0
"273";;;3;2;1
"274";0;0;3;1;
"275";0;0;0;2;0
"276";;;;1;0
"277";1;0;;1;1
"278";1;;2;2;2
"279";0;0;;2;
