"";"HGP_R";"HDE_R";"RRP_R";"FGF_R";"FLA_R";"TSO_R"
"2";;1;1;;1;1
"3";2;1;;1;2;
"22";1;1;1;;;
"24";1;1;1;1;1;1
"25";;1;;1;1;2
"31";;1;1;2;1;1
"32";2;1;1;1;;2
"33";1;;2;2;;
"37";2;1;1;1;1;
"39";1;1;1;2;2;1
"40";1;1;;;1;2
"41";3;;1;1;1;1
"43";1;;1;1;;
"45";2;1;1;1;1;1
"46";1;;1;;;1
"48";1;1;1;1;1;1
"58";1;1;1;1;1;1
"61";1;1;1;1;1;1
"73";1;1;1;1;1;1
"75";;2;;1;;1
"76";1;1;1;1;;1
"81";1;1;1;1;1;1
"82";2;1;1;;1;1
"91";2;;2;2;;1
"92";1;;;1;2;1
"94";1;1;1;;1;
"96";;1;1;1;1;
"97";;1;1;;1;1
"101";2;1;1;;2;1
"102";1;1;1;1;1;1
"115";2;1;2;2;1;
"116";1;;1;1;1;1
"121";;1;1;;1;1
"124";2;1;;1;1;
"126";2;1;2;1;1;1
"127";2;2;;1;1;2
"129";2;1;;2;1;1
"130";;2;1;2;;1
"133";1;1;1;;;
"134";1;;2;1;2;2
"137";1;1;1;1;1;1
"140";1;1;2;;2;
"143";1;;2;2;2;2
"154";1;1;;2;;1
"155";1;1;1;1;1;
"156";1;;1;1;1;1
"157";1;1;;;1;1
"161";1;1;1;2;1;1
"162";1;1;;1;1;1
"164";1;1;;1;;1
"173";2;1;;;2;1
"175";1;2;;1;1;2
"177";1;1;1;1;2;2
"180";;;1;1;;1
"181";2;2;2;1;;2
"185";2;2;2;2;2;
"186";1;1;1;2;1;1
"188";2;2;;1;;1
"190";2;2;2;2;2;
"191";2;1;1;1;1;2
"192";2;1;2;2;2;
"195";1;2;1;2;2;1
"197";;1;2;1;3;2
"205";2;;1;2;1;1
"210";;2;;1;2;1
"212";2;;2;1;1;1
"213";;1;1;2;1;2
"214";1;1;1;1;1;1
"216";2;2;;2;2;
"224";1;;1;;1;1
"229";2;2;2;2;1;1
"232";2;2;2;2;1;1
"239";2;;1;2;1;
"240";1;;2;2;1;
"241";;2;1;1;;1
"242";1;1;1;2;1;1
"244";1;1;2;1;1;1
"249";2;1;1;1;1;1
"250";2;2;;2;1;1
"252";1;1;1;2;1;1
"264";2;2;;2;2;1
"267";;;1;1;;2
"269";2;1;2;2;;
"270";;2;2;1;;1
"277";1;1;1;;2;1
"278";2;2;2;2;2;2
"287";3;2;2;;2;1
"289";2;2;1;;1;1
"290";2;2;2;2;;1
"291";2;2;2;;2;
"298";1;2;2;1;1;2
"305";2;1;;2;2;1
"307";;;2;2;2;2
"308";;1;2;;;
"310";;2;2;;;2
"313";;2;2;2;2;2
"316";;;1;2;2;1
"318";2;2;1;2;1;1
"319";1;1;1;2;2;2
"324";2;2;1;2;2;3
"327";;2;2;2;2;2
"329";;;2;2;2;2
"332";2;1;2;2;1;2
"333";;2;;2;2;1
"335";3;1;2;1;2;1
"340";2;2;1;1;1;2
"341";;2;1;1;;1
"343";2;2;2;2;2;1
"345";3;1;1;2;2;1
"346";;3;;2;2;1
"349";1;1;1;2;1;1
"350";2;;1;;1;2
"353";;2;3;3;3;3
"355";;;;1;1;
"359";3;;2;2;2;2
"361";;;;;2;1
"362";2;2;2;2;;1
"365";2;;3;2;2;1
"367";3;2;;2;2;3
"370";2;2;;;2;1
"375";2;1;1;1;;1
"376";2;1;2;2;2;1
"379";2;2;1;3;1;2
"380";2;2;2;2;2;2
"384";1;;1;2;;1
"391";2;2;2;2;;2
"392";2;2;;2;2;
"396";1;3;3;3;2;
"397";;2;;2;2;1
"401";3;2;2;2;2;
"402";2;2;1;;1;
"404";2;3;2;2;2;
"405";;2;2;2;1;2
"406";;2;1;2;2;1
"408";2;;2;3;2;1
"411";;2;2;1;3;
"418";;1;2;2;1;1
"421";1;1;2;2;2;
"426";2;;2;3;2;
"432";3;;2;;3;
"436";2;2;3;2;2;1
"439";;2;2;;2;2
"440";2;3;2;2;2;2
"442";2;;;2;2;1
"444";;2;2;2;;2
"445";;1;2;2;1;1
"450";2;2;2;2;2;1
"452";;2;2;;2;2
"453";;2;2;;2;1
"455";2;2;2;;;1
"456";2;2;;2;;2
"457";3;2;2;2;2;2
"458";3;2;2;2;2;2
"467";2;;;3;2;3
"468";2;1;2;3;2;1
"470";2;2;2;;2;1
"473";2;2;1;2;2;2
"474";1;;2;2;2;2
"478";1;2;2;3;2;3
"479";;1;2;2;3;3
"483";1;1;1;;2;
"487";2;2;2;2;2;2
"489";;3;2;;2;
"491";;2;;;2;2
"495";2;2;;3;;
"497";2;3;;3;2;1
"498";2;2;2;2;2;1
"503";;2;2;2;3;2
"513";3;;2;2;3;2
"514";2;3;1;3;2;2
"517";3;3;2;3;3;2
"518";2;1;2;;1;2
"524";2;2;;2;1;1
"525";2;3;;3;;
"528";2;1;1;2;3;3
"529";3;2;;2;;2
"533";;;1;;;
"535";2;1;1;1;2;2
"537";;2;3;2;2;2
"541";2;2;2;2;2;
"542";;;2;2;2;1
"543";;;1;;;2
"546";1;1;3;;2;
"550";2;;2;2;2;
"551";2;3;2;;2;
"553";2;1;2;3;2;
"556";3;2;2;3;2;1
"559";2;;2;2;2;2
"561";2;2;2;;2;2
"562";3;;2;2;2;1
"563";3;2;2;3;3;2
"564";;2;2;2;1;
"569";;1;1;1;1;1
"570";2;3;2;3;3;
"575";;;;;2;2
"577";;2;2;2;2;1
"579";2;2;2;2;2;1
"583";2;2;;3;2;2
"584";2;1;;2;;1
"585";2;2;;;2;2
"587";2;2;2;;2;1
"590";;2;2;2;2;
"591";2;2;3;;2;2
"592";2;2;2;2;;2
"593";;3;2;2;2;1
"594";2;;1;;2;1
"596";3;;2;2;2;
"597";3;2;;3;2;2
"601";;2;2;2;;3
"603";3;2;2;;2;2
"605";2;;2;;2;2
"608";;2;2;3;;2
"609";2;2;2;2;2;1
"612";;2;2;2;;2
"614";2;2;2;;2;1
"616";;;2;1;;2
"620";2;2;1;2;2;1
"623";;2;2;2;2;
"628";3;2;2;;2;3
"629";;2;2;3;2;2
"630";;1;2;2;;1
"631";2;3;2;;2;2
"632";;2;;2;2;1
"633";2;3;2;2;3;3
"635";2;2;;2;1;1
"638";3;3;;2;3;2
"639";3;2;2;3;3;
"643";1;1;1;1;2;2
"645";2;2;2;;;2
"646";2;2;2;2;2;1
"652";3;3;1;;;3
"655";2;2;3;2;;1
"658";2;2;2;3;2;1
"661";2;2;;2;2;2
"663";;;2;3;2;3
"666";2;3;2;3;2;2
"668";2;2;2;2;;1
"673";2;2;;;2;3
"675";3;;3;;2;
"676";2;;2;2;2;
"685";3;2;;3;;1
"688";;2;2;3;3;2
"689";2;;2;3;2;3
"694";2;;2;2;2;
"696";;2;1;2;2;1
"697";3;2;2;3;3;2
"701";;1;2;;2;2
"706";3;2;;2;2;2
"712";3;2;2;2;2;
"713";3;2;;3;2;2
"714";2;2;2;;2;
"716";3;;;3;3;
"718";3;3;2;1;2;2
"720";;2;2;2;2;1
"721";3;3;2;3;3;
